{
    "KPackageStructure": "KWin/Decoration",
    "KPlugin": {
        "Authors": [
            {
                "Email": "demitriusbelai@gmail.com",
                "Name": "Demitrius Belai",
                "Name[ar]": "Demitrius Belai",
                "Name[az]": "Demitrius Belai",
                "Name[ca]": "Demitrius Belai",
                "Name[cs]": "Demitrius Belai",
                "Name[en_GB]": "Demitrius Belai",
                "Name[es]": "Demitrius Belai",
                "Name[eu]": "Demitrius Belai",
                "Name[fi]": "Demitrius Belai",
                "Name[fr]": "Demitrius Belai",
                "Name[it]": "Demitrius Belai",
                "Name[ko]": "Demitrius Belai",
                "Name[lt]": "Demitrius Belai",
                "Name[nl]": "Demitrius Belai",
                "Name[pl]": "Demitrius Belai",
                "Name[pt]": "Demitrius Belai",
                "Name[sk]": "Demitrius Belai",
                "Name[sl]": "Demitrius Belai",
                "Name[sv]": "Demitrius Belai",
                "Name[uk]": "Demitrius Belai",
                "Name[vi]": "Demitrius Belai",
                "Name[x-test]": "xxDemitrius Belaixx",
                "Name[zh_CN]": "Demitrius Belai"
            }
        ],
        "Name": "KWin Decoration",
        "Name[ar]": "زخارف نوافذ كوين",
        "Name[az]": "KWin Dekorasiyası",
        "Name[ca]": "Decoració del KWin",
        "Name[cs]": "Dekorace KWin",
        "Name[en_GB]": "KWin Decoration",
        "Name[es]": "Decoración de KWin",
        "Name[eu]": "KWin apainketa",
        "Name[fi]": "KWin-koristelu",
        "Name[fr]": "Décorations pour KWin",
        "Name[it]": "Decorazione di KWin",
        "Name[ko]": "KWin 장식",
        "Name[lt]": "KWin dekoracijos",
        "Name[nl]": "KWin-decoraties",
        "Name[pl]": "Wygląd KWin",
        "Name[pt]": "Decoração do KWin",
        "Name[sk]": "KWin Dekorácia",
        "Name[sl]": "KWin Decoration",
        "Name[sv]": "Kwin-dekoration",
        "Name[uk]": "Обрамлення вікон KWin",
        "Name[vi]": "Trang trí KWin",
        "Name[x-test]": "xxKWin Decorationxx",
        "Name[zh_CN]": "KWin 装饰元素",
        "Version": "1"
    }
}
